<?xml version="1.0" encoding="UTF-8" standalone="no"?>
<!-- Created with Inkscape (http://www.inkscape.org/) -->

<svg
   version="1.1"
   id="svg1"
   width="18"
   height="18"
   viewBox="0 0 18 18"
   sodipodi:docname="centerwork.png"
   inkscape:export-filename="centerwork.svg"
   inkscape:export-xdpi="96"
   inkscape:export-ydpi="96"
   xmlns:inkscape="http://www.inkscape.org/namespaces/inkscape"
   xmlns:sodipodi="http://sodipodi.sourceforge.net/DTD/sodipodi-0.dtd"
   xmlns="http://www.w3.org/2000/svg"
   xmlns:svg="http://www.w3.org/2000/svg">
  <defs
     id="defs1" />
  <sodipodi:namedview
     id="namedview1"
     pagecolor="#ffffff"
     bordercolor="#000000"
     borderopacity="0.25"
     inkscape:showpageshadow="2"
     inkscape:pageopacity="0.0"
     inkscape:pagecheckerboard="0"
     inkscape:deskcolor="#d1d1d1"
     showgrid="false" />
  <g
     inkscape:groupmode="layer"
     inkscape:label="Image"
     id="g1">
    <g
       id="g9">
      <rect
         style="fill:none;stroke:#ff00ff;stroke-width:1.00157;stroke-linecap:square"
         id="rect1"
         width="13.99843"
         height="13.99843"
         x="2.0007849"
         y="2.0007849" />
      <path
         style="fill:none;stroke:#ff00ff;stroke-width:1.00157;stroke-linecap:square"
         d="M 5.5003924,2.0007849 V 15.862764"
         id="path2" />
      <path
         style="fill:none;stroke:#ff00ff;stroke-width:1.00157;stroke-linecap:square"
         d="m 12.499608,2.0007849 -1e-6,13.9984301"
         id="path3" />
      <path
         style="fill:none;stroke:#ff00ff;stroke-width:1.00157;stroke-linecap:square"
         d="M 2.0007849,9 H 5.5003924"
         id="path4" />
      <path
         style="fill:none;stroke:#ff00ff;stroke-width:1.00157;stroke-linecap:square"
         d="m 12.499608,9 h 3.499607"
         id="path5" />
      <rect
         style="fill:none;stroke:#ff00ff;stroke-width:1.00157;stroke-linecap:square"
         id="rect5"
         width="13.99843"
         height="13.99843"
         x="2.0007849"
         y="2.0007849" />
      <path
         style="fill:none;stroke:#ff00ff;stroke-width:1.00157;stroke-linecap:square"
         d="M 5.5003924,2.0007849 V 15.862764"
         id="path6" />
      <path
         style="fill:none;stroke:#ff00ff;stroke-width:1.00157;stroke-linecap:square"
         d="m 12.499608,2.0007849 -1e-6,13.9984301"
         id="path7" />
      <path
         style="fill:none;stroke:#ff00ff;stroke-width:1.00157;stroke-linecap:square"
         d="M 2.0007849,9 H 5.5003924"
         id="path8" />
      <path
         style="fill:none;stroke:#ff00ff;stroke-width:1.00157;stroke-linecap:square"
         d="m 12.499608,9 h 3.499607"
         id="path9" />
    </g>
  </g>
</svg>
