<?xml version="1.0" encoding="UTF-8" standalone="no"?>
<!-- Created with Inkscape (http://www.inkscape.org/) -->

<svg
   version="1.1"
   id="svg1"
   width="18"
   height="18"
   viewBox="0 0 18 18"
   sodipodi:docname="tile.svg"
   inkscape:version="1.3.2 (091e20ef0f, 2023-11-25, custom)"
   xmlns:inkscape="http://www.inkscape.org/namespaces/inkscape"
   xmlns:sodipodi="http://sodipodi.sourceforge.net/DTD/sodipodi-0.dtd"
   xmlns="http://www.w3.org/2000/svg"
   xmlns:svg="http://www.w3.org/2000/svg">
  <sodipodi:namedview
     id="namedview1"
     pagecolor="#ffffff"
     bordercolor="#000000"
     borderopacity="0.25"
     inkscape:showpageshadow="2"
     inkscape:pageopacity="0.0"
     inkscape:pagecheckerboard="0"
     inkscape:deskcolor="#d1d1d1"
     showgrid="false"
     inkscape:zoom="37.777778"
     inkscape:cx="6.1014706"
     inkscape:cy="6.1147059"
     inkscape:window-width="1920"
     inkscape:window-height="1060"
     inkscape:window-x="0"
     inkscape:window-y="20"
     inkscape:window-maximized="0"
     inkscape:current-layer="g1" />
  <defs
     id="defs1" />
  <g
     id="g1">
    <rect
       style="fill:none;stroke:#ff00ff;stroke-width:1;stroke-dasharray:none;stroke-opacity:1"
       id="rect1"
       width="15"
       height="15"
       x="1.5"
       y="1.5000002" />
    <path
       style="fill:none;stroke:#ff00ff;stroke-width:1;stroke-dasharray:none;stroke-opacity:1"
       d="M 9,1.5 V 16.500002"
       id="path1" />
    <path
       style="fill:none;stroke:#ff00ff;stroke-width:1;stroke-dasharray:none;stroke-opacity:1"
       d="m 9,9.000001 h 7.5"
       id="path2" />
  </g>
</svg>
